Day,Count
1,6.4
2,6.7
3,19.4
4,29.6
5,36.5
5.1,5
9,29
9.1,5
11,11.6
12,24.2
13,41.5
14,27.5
1,6.4
2,7
3,21.2
4,31.2
5,35
5.1,5
9,30
9.1,5
11,11
12,22.6
13,28
14,35.5
1,6.4
2,7.5
3,22.81
4,24.4
5,35
5.1,5
9,34
9.1,5
11,9.6
12,25
13,37.5
14,30.5